<?xml version="1.0" encoding="UTF-8" standalone="no"?>
<!DOCTYPE svg PUBLIC "-//W3C//DTD SVG 1.1//EN"
 "http://www.w3.org/Graphics/SVG/1.1/DTD/svg11.dtd">
<!-- Generated by graphviz version 2.36.0 (20140111.2315)
 -->
<!-- Title: mem Pages: 1 -->
<svg width="190pt" height="92pt"
 viewBox="0.00 0.00 190.00 92.00" xmlns="http://www.w3.org/2000/svg" xmlns:xlink="http://www.w3.org/1999/xlink">
<g id="graph0" class="graph" transform="scale(1 1) rotate(0) translate(4 88)">
<title>mem</title>
<polygon fill="white" stroke="none" points="-4,4 -4,-88 186,-88 186,4 -4,4"/>
<!-- mem1 -->
<g id="node1" class="node"><title>mem1</title>
<polygon fill="none" stroke="black" points="0,-47 0,-83 182,-83 182,-47 0,-47"/>
<text text-anchor="middle" x="45.5" y="-61.3" font-family="Courier,monospace" font-size="14.00">0000 0111</text>
<polyline fill="none" stroke="black" points="91,-47 91,-83 "/>
<text text-anchor="middle" x="136.5" y="-61.3" font-family="Courier,monospace" font-size="14.00">1101 0000</text>
</g>
<!-- addr0 -->
<g id="node2" class="node"><title>addr0</title>
<polygon fill="none" stroke="white" points="18,-1 18,-37 72,-37 72,-1 18,-1"/>
<text text-anchor="middle" x="45" y="-15.3" font-family="Courier,monospace" font-size="14.00">0</text>
</g>
<!-- mem1&#45;&gt;addr0 -->
<!-- addr1 -->
<g id="node3" class="node"><title>addr1</title>
<polygon fill="none" stroke="white" points="110,-1 110,-37 164,-37 164,-1 110,-1"/>
<text text-anchor="middle" x="137" y="-15.3" font-family="Courier,monospace" font-size="14.00">1</text>
</g>
<!-- mem1&#45;&gt;addr1 -->
</g>
</svg>
